<svg version="1.1" viewBox="0 0 64 64" height="64px" width="64px" xmlns="http://www.w3.org/2000/svg">
 <path d="m32 1.8c-3.67 0.057-6.63 3.25-6.63 7.2 0.0021 2.94 1.82 5.42 1.86 6.83-1.62 0.0677-1.69 0.068-3.59-3.67-0.664-0.949-2.49-3.63-6.73-3.63-4.24-6.58e-4 -7.67 3.82-7.67 8.54 0.142 3.59 0.807 5.81 1.39 9.03 0.0581 3.05 0.268 5.15-1 7.27s-1.9 4.66-0.426 5.61c1.47 0.949 4.05-0.0256 5.75-2.18l5.99-6.62c-1.3 10.6-3.95 17-6.52 25.3-1.72e-4 3.93 7.7 6.68 17.3 6.75-2.62e-4 0.0012 2.62e-4 0.0027 0 0.0039 0.189 7e-3 0.37 0 0.551 0-2.62e-4 -0.0012 2.61e-4 -0.0027 0-0.0039 9.6-0.0707 17.3-2.83 17.3-6.75-2.57-8.28-5.22-14.7-6.52-25.3l5.99 6.62c1.71 2.15 4.28 3.12 5.75 2.18 1.47-0.948 0.842-3.5-0.426-5.61-1.27-2.11-1.06-4.22-1-7.27 0.583-3.21 1.25-5.43 1.39-9.03 5.81e-4 -4.71-3.44-8.54-7.67-8.54-4.24 5.42e-4 -6.07 2.69-6.73 3.63-1.9 3.73-1.97 3.73-3.59 3.67 0.0388-1.41 1.86-3.9 1.86-6.83 6.6e-5 -3.94-2.96-7.14-6.63-7.2z" fill="#f1f82d" stroke="#4c4320" stroke-linejoin="round" stroke-width="2"/>
</svg>
